Functional programming Midterm
…
school_clean <- school_raw %>% 
  janitor::clean_names() %>% 
  filter(student_group == "White" |
           student_group == "Hispanic/Latino") %>% 
  pivot_longer(cols = c(number_level_1, number_level_2, 
                        number_level_3, number_level_4), 
               names_to = "level",
               values_to = "n",
               names_prefix = "number_level_") %>% 
  select(academic_year, district, school, student_group, grade_level, level, n) %>% 
  drop_na(n)

school_clean

## # A tibble: 90,576 x 7
##    academic_year district   school         student_group grade_level level     n
##    <chr>         <chr>      <chr>          <chr>         <chr>       <chr> <dbl>
##  1 2014-2015     Adrian SD~ Adrian Elemen~ Hispanic/Lat~ Grade 3     1         2
##  2 2014-2015     Adrian SD~ Adrian Elemen~ Hispanic/Lat~ Grade 3     2         1
##  3 2014-2015     Adrian SD~ Adrian Elemen~ Hispanic/Lat~ Grade 3     3         2
##  4 2014-2015     Adrian SD~ Adrian Elemen~ Hispanic/Lat~ Grade 3     4         1
##  5 2014-2015     Adrian SD~ Adrian Elemen~ Hispanic/Lat~ Grade 6     1         2
##  6 2014-2015     Adrian SD~ Adrian Elemen~ Hispanic/Lat~ Grade 6     2         3
##  7 2014-2015     Adrian SD~ Adrian Elemen~ Hispanic/Lat~ Grade 6     3         2
##  8 2014-2015     Adrian SD~ Adrian Elemen~ Hispanic/Lat~ Grade 6     4         0
##  9 2014-2015     Adrian SD~ Adrian Elemen~ Hispanic/Lat~ Grade 7     1         2
## 10 2014-2015     Adrian SD~ Adrian Elemen~ Hispanic/Lat~ Grade 7     2         2
## # ... with 90,566 more rows
#2

school <- school_clean %>% 
  group_by(district) %>%
  mutate(n_schools = length(unique(school))) %>% 
  group_by(academic_year, district, level, student_group, n_schools) %>%
  summarize(n = sum(n)) %>% 
  pivot_wider(names_from = student_group, values_from = n) %>% 
  janitor::clean_names() %>% 
  drop_na(hispanic_latino, white) %>% 
  arrange(district) 

school

## # A tibble: 1,948 x 6
## # Groups:   academic_year, district, level [1,948]
##    academic_year district     level n_schools hispanic_latino white
##    <chr>         <chr>        <chr>     <int>           <dbl> <dbl>
##  1 2014-2015     Adrian SD 61 1             2               6     8
##  2 2014-2015     Adrian SD 61 2             2               6    17
##  3 2014-2015     Adrian SD 61 3             2               6    23
##  4 2014-2015     Adrian SD 61 4             2               1    22
##  5 2015-2016     Adrian SD 61 1             2               5     4
##  6 2015-2016     Adrian SD 61 2             2               3    15
##  7 2015-2016     Adrian SD 61 3             2               5    39
##  8 2015-2016     Adrian SD 61 4             2               0    36
##  9 2016-2017     Adrian SD 61 1             2               2     4
## 10 2016-2017     Adrian SD 61 2             2               0    19
## # ... with 1,938 more rows
…
